[gd_scene load_steps=6 format=3 uid="uid://chxyo57j3q4hk"]

[ext_resource type="Script" path="res://assets/scripts/classes/Level.gd" id="1_43wn5"]
[ext_resource type="TileSet" uid="uid://vf2870j4378j" path="res://assets/level_02.tres" id="2_qpehl"]
[ext_resource type="PackedScene" uid="uid://bam28liatvf7m" path="res://scenes/entities/obstacles/trap.tscn" id="3_pdnjx"]
[ext_resource type="PackedScene" uid="uid://8o0gmaoaen67" path="res://scenes/entities/obstacles/danger_zone.tscn" id="4_oneob"]

[sub_resource type="RectangleShape2D" id="RectangleShape2D_erjb7"]
size = Vector2(576, 33)

[node name="Level" type="Node2D" node_paths=PackedStringArray("level_start", "level_end")]
script = ExtResource("1_43wn5")
level_id = 1
level_start = NodePath("LevelStart")
level_end = NodePath("LevelEnd")

[node name="MainTilemap" type="TileMap" parent="."]
tile_set = ExtResource("2_qpehl")
format = 2
layer_0/name = "Platforms"
layer_0/tile_data = PackedInt32Array(1638400, 0, 9, 1638401, 0, 9, 1638402, 0, 9, 1638403, 0, 9, -2490368, 0, 9, -2490367, 0, 9, -2490366, 0, 9, -2490365, 0, 9, 131072, 131072, 1342177289, 196608, 131072, 1342177289, 262144, 131072, 11, 327680, 0, 9, 393216, 0, 9, 458752, 0, 9, 524288, 0, 9, 589824, 0, 9, 655360, 0, 9, 720896, 0, 9, 786432, 0, 9, 851968, 0, 9, 917504, 0, 9, 983040, 0, 9, 1048576, 0, 9, 1114112, 0, 9, 1179648, 0, 9, 1245184, 0, 9, 1310720, 0, 9, 1376256, 0, 9, 1441792, 0, 9, 1507328, 0, 9, 1572864, 0, 9, 262145, 131072, 9, 327681, 0, 9, 393217, 0, 9, 458753, 0, 9, 524289, 0, 9, 589825, 0, 9, 655361, 0, 9, 720897, 0, 9, 786433, 0, 9, 851969, 0, 9, 917505, 0, 9, 983041, 0, 9, 1048577, 0, 9, 1114113, 0, 9, 1179649, 0, 9, 1245185, 0, 9, 1310721, 0, 9, 1376257, 0, 9, 1441793, 0, 9, 1507329, 0, 9, 1572865, 0, 9, 262146, 131072, 9, 327682, 0, 9, 393218, 0, 9, 458754, 0, 9, 524290, 0, 9, 589826, 0, 9, 655362, 0, 9, 720898, 0, 9, 786434, 0, 9, 851970, 0, 9, 917506, 0, 9, 983042, 0, 9, 1048578, 0, 9, 1114114, 0, 9, 1179650, 0, 9, 1245186, 0, 9, 1310722, 0, 9, 1376258, 0, 9, 1441794, 0, 9, 1507330, 0, 9, 1572866, 0, 9, 262147, 131072, 9, 327683, 0, 9, 393219, 0, 9, 458755, 0, 9, 524291, 0, 9, 589827, 0, 9, 655363, 0, 9, 720899, 0, 9, 786435, 0, 9, 851971, 0, 9, 917507, 0, 9, 983043, 0, 9, 1048579, 0, 9, 1114115, 0, 9, 1179651, 0, 9, 1245187, 0, 9, 1310723, 0, 9, 1376259, 0, 9, 1441795, 0, 9, 1507331, 0, 9, 1572867, 0, 9, -2424832, 0, 9, -2359296, 0, 9, -2293760, 0, 9, -2228224, 0, 9, -2162688, 0, 9, -2097152, 0, 9, -2031616, 0, 9, -1966080, 0, 9, -1900544, 0, 9, -1835008, 0, 9, -1769472, 0, 9, -1703936, 0, 9, -1638400, 0, 9, -1572864, 0, 9, -1507328, 0, 9, -1441792, 0, 9, -1376256, 0, 9, -1310720, 0, 9, -1245184, 0, 9, -1179648, 0, 9, -1114112, 0, 9, -1048576, 0, 9, -983040, 0, 9, -917504, 0, 9, -851968, 0, 9, -786432, 0, 9, -720896, 0, 9, -655360, 0, 9, -589824, 0, 9, -524288, 0, 9, -2424831, 0, 9, -2359295, 0, 9, -2293759, 0, 9, -2228223, 0, 9, -2162687, 0, 9, -2097151, 0, 9, -2031615, 0, 9, -1966079, 0, 9, -1900543, 0, 9, -1835007, 0, 9, -1769471, 0, 9, -1703935, 0, 9, -1638399, 0, 9, -1572863, 0, 9, -1507327, 0, 9, -1441791, 0, 9, -1376255, 0, 9, -1310719, 0, 9, -1245183, 0, 9, -1179647, 0, 9, -1114111, 0, 9, -1048575, 0, 9, -983039, 0, 9, -917503, 0, 9, -851967, 0, 9, -786431, 0, 9, -720895, 0, 9, -655359, 0, 9, -589823, 0, 9, -524287, 0, 9, -2424830, 0, 9, -2359294, 0, 9, -2293758, 0, 9, -2228222, 0, 9, -2162686, 0, 9, -2097150, 0, 9, -2031614, 0, 9, -1966078, 0, 9, -1900542, 0, 9, -1835006, 0, 9, -1769470, 0, 9, -1703934, 0, 9, -1638398, 0, 9, -1572862, 0, 9, -1507326, 0, 9, -1441790, 0, 9, -1376254, 0, 9, -1310718, 0, 9, -1245182, 0, 9, -1179646, 0, 9, -1114110, 0, 9, -1048574, 0, 9, -983038, 0, 9, -917502, 0, 9, -851966, 0, 9, -786430, 0, 9, -720894, 0, 9, -655358, 0, 9, -589822, 0, 9, -524286, 0, 9, -2424829, 0, 9, -2359293, 0, 9, -2293757, 0, 9, -2228221, 0, 9, -2162685, 0, 9, -2097149, 0, 9, -2031613, 0, 9, -1966077, 0, 9, -1900541, 0, 9, -1835005, 0, 9, -1769469, 0, 9, -1703933, 0, 9, -1638397, 0, 9, -1572861, 0, 9, -1507325, 0, 9, -1441789, 0, 9, -1376253, 0, 9, -1310717, 0, 9, -1245181, 0, 9, -1179645, 0, 9, -1114109, 0, 9, -1048573, 0, 9, -983037, 0, 9, -917501, 0, 9, -851965, 0, 9, -786429, 0, 9, -720893, 0, 9, -655357, 0, 9, -589821, 0, 9, -458752, 0, 9, -458751, 0, 9, -393216, 131072, 805306377, 0, 131072, 10, 65536, 131072, 1342177289, 1703936, 0, 9, 1769472, 0, 9, 1835008, 0, 9, 1900544, 0, 9, 1966080, 0, 9, 2031616, 0, 9, 2097152, 0, 9, 2162688, 0, 9, 2228224, 0, 9, 2293760, 0, 9, 2359296, 0, 9, 2424832, 0, 9, 2490368, 0, 9, 2555904, 0, 9, 2621440, 0, 9, 2686976, 0, 9, 2752512, 0, 9, 2818048, 0, 9, 2883584, 0, 9, 2949120, 0, 9, 3014656, 0, 9, 3080192, 0, 9, 3145728, 0, 9, 3211264, 0, 9, 3276800, 0, 9, 3342336, 0, 9, 3407872, 0, 9, 3473408, 0, 9, 3538944, 0, 9, 3604480, 0, 9, 3670016, 0, 9, 3735552, 0, 9, 3801088, 0, 9, 3866624, 0, 9, 3932160, 0, 9, 3997696, 0, 9, 4063232, 0, 9, 4128768, 0, 9, 4194304, 0, 9, 4259840, 0, 9, 4325376, 0, 9, 4390912, 0, 9, 4456448, 0, 9, 1703937, 0, 9, 1769473, 0, 9, 1835009, 0, 9, 1900545, 0, 9, 1966081, 0, 9, 2031617, 0, 9, 2097153, 0, 9, 2162689, 0, 9, 2228225, 0, 9, 2293761, 0, 9, 2359297, 0, 9, 2424833, 0, 9, 2490369, 0, 9, 2555905, 0, 9, 2621441, 0, 9, 2686977, 0, 9, 2752513, 0, 9, 2818049, 0, 9, 2883585, 0, 9, 2949121, 0, 9, 3014657, 0, 9, 3080193, 0, 9, 3145729, 0, 9, 3211265, 0, 9, 3276801, 0, 9, 3342337, 0, 9, 3407873, 0, 9, 3473409, 0, 9, 3538945, 0, 9, 3604481, 0, 9, 3670017, 0, 9, 3735553, 0, 9, 3801089, 0, 9, 3866625, 0, 9, 3932161, 0, 9, 3997697, 0, 9, 4063233, 0, 9, 4128769, 0, 9, 4194305, 0, 9, 4259841, 0, 9, 4325377, 0, 9, 4390913, 0, 9, 4456449, 0, 9, 1703938, 0, 9, 1769474, 0, 9, 1835010, 0, 9, 1900546, 0, 9, 1966082, 0, 9, 2031618, 0, 9, 2097154, 0, 9, 2162690, 0, 9, 2228226, 0, 9, 2293762, 0, 9, 2359298, 0, 9, 2424834, 0, 9, 2490370, 0, 9, 2555906, 0, 9, 2621442, 0, 9, 2686978, 0, 9, 2752514, 0, 9, 2818050, 0, 9, 2883586, 0, 9, 2949122, 0, 9, 3014658, 0, 9, 3080194, 0, 9, 3145730, 0, 9, 3211266, 0, 9, 3276802, 0, 9, 3342338, 0, 9, 3407874, 0, 9, 3473410, 0, 9, 3538946, 0, 9, 3604482, 0, 9, 3670018, 0, 9, 3735554, 0, 9, 3801090, 0, 9, 3866626, 0, 9, 3932162, 0, 9, 3997698, 0, 9, 4063234, 0, 9, 4128770, 0, 9, 4194306, 0, 9, 4259842, 0, 9, 4325378, 0, 9, 4390914, 0, 9, 4456450, 0, 9, 1703939, 0, 9, 1769475, 0, 9, 1835011, 0, 9, 1900547, 0, 9, 1966083, 0, 9, 2031619, 0, 9, 2097155, 0, 9, 2162691, 0, 9, 2228227, 0, 9, 2293763, 0, 9, 2359299, 0, 9, 2424835, 0, 9, 2490371, 0, 9, 2555907, 0, 9, 2621443, 0, 9, 2686979, 0, 9, 2752515, 0, 9, 2818051, 0, 9, 2883587, 0, 9, 2949123, 0, 9, 3014659, 0, 9, 3080195, 0, 9, 3145731, 0, 9, 3211267, 0, 9, 3276803, 0, 9, 3342339, 0, 9, 3407875, 0, 9, 3473411, 0, 9, 3538947, 0, 9, 3604483, 0, 9, 3670019, 0, 9, 3735555, 0, 9, 3801091, 0, 9, 3866627, 0, 9, 3932163, 0, 9, 3997699, 0, 9, 4063235, 0, 9, 4128771, 0, 9, 4194307, 0, 9, 4259843, 0, 9, 4325379, 0, 9, 4390915, 0, 9, 4456451, 0, 9, -524285, 0, 9, -10158080, 0, 9, -10092544, 0, 9, -10027008, 0, 9, -9961472, 0, 9, -9895936, 0, 9, -9830400, 0, 9, -9764864, 0, 9, -9699328, 0, 9, -9633792, 0, 9, -9568256, 0, 9, -9502720, 0, 9, -9437184, 0, 9, -9371648, 0, 9, -9306112, 0, 9, -9240576, 0, 9, -9175040, 0, 9, -9109504, 0, 9, -9043968, 0, 9, -8978432, 0, 9, -8912896, 0, 9, -8847360, 0, 9, -8781824, 0, 9, -8716288, 0, 9, -8650752, 0, 9, -8585216, 0, 9, -8519680, 0, 9, -8454144, 0, 9, -8388608, 0, 9, -8323072, 0, 9, -8257536, 0, 9, -8192000, 0, 9, -8126464, 0, 9, -8060928, 0, 9, -7995392, 0, 9, -7929856, 0, 9, -7864320, 0, 9, -7798784, 0, 9, -7733248, 0, 9, -7667712, 0, 9, -7602176, 0, 9, -7536640, 0, 9, -7471104, 0, 9, -7405568, 0, 9, -7340032, 0, 9, -7274496, 0, 9, -7208960, 0, 9, -7143424, 0, 9, -7077888, 0, 9, -7012352, 0, 9, -6946816, 0, 9, -6881280, 0, 9, -6815744, 0, 9, -6750208, 0, 9, -6684672, 0, 9, -6619136, 0, 9, -6553600, 0, 9, -6488064, 0, 9, -6422528, 0, 9, -6356992, 0, 9, -6291456, 0, 9, -6225920, 0, 9, -6160384, 0, 9, -6094848, 0, 9, -6029312, 0, 9, -5963776, 0, 9, -5898240, 0, 9, -5832704, 0, 9, -5767168, 0, 9, -5701632, 0, 9, -5636096, 0, 9, -5570560, 0, 9, -5505024, 0, 9, -5439488, 0, 9, -5373952, 0, 9, -5308416, 0, 9, -5242880, 0, 9, -5177344, 0, 9, -5111808, 0, 9, -5046272, 0, 9, -4980736, 0, 9, -4915200, 0, 9, -4849664, 0, 9, -4784128, 0, 9, -4718592, 0, 9, -4653056, 0, 9, -4587520, 0, 9, -4521984, 0, 9, -4456448, 0, 9, -4390912, 0, 9, -4325376, 0, 9, -4259840, 0, 9, -4194304, 0, 9, -4128768, 0, 9, -4063232, 0, 9, -3997696, 0, 9, -3932160, 0, 9, -3866624, 0, 9, -3801088, 0, 9, -3735552, 0, 9, -3670016, 0, 9, -3604480, 0, 9, -3538944, 0, 9, -3473408, 0, 9, -3407872, 0, 9, -3342336, 0, 9, -3276800, 0, 9, -3211264, 0, 9, -3145728, 0, 9, -3080192, 0, 9, -3014656, 0, 9, -2949120, 0, 9, -2883584, 0, 9, -2818048, 0, 9, -2752512, 0, 9, -2686976, 0, 9, -2621440, 0, 9, -2555904, 0, 9, -10158079, 0, 9, -10092543, 0, 9, -10027007, 0, 9, -9961471, 0, 9, -9895935, 0, 9, -9830399, 0, 9, -9764863, 0, 9, -9699327, 0, 9, -9633791, 0, 9, -9568255, 0, 9, -9502719, 0, 9, -9437183, 0, 9, -9371647, 0, 9, -9306111, 0, 9, -9240575, 0, 9, -9175039, 0, 9, -9109503, 0, 9, -9043967, 0, 9, -8978431, 0, 9, -8912895, 0, 9, -8847359, 0, 9, -8781823, 0, 9, -8716287, 0, 9, -8650751, 0, 9, -8585215, 0, 9, -8519679, 0, 9, -8454143, 0, 9, -8388607, 0, 9, -8323071, 0, 9, -8257535, 0, 9, -8191999, 0, 9, -8126463, 0, 9, -8060927, 0, 9, -7995391, 0, 9, -7929855, 0, 9, -7864319, 0, 9, -7798783, 0, 9, -7733247, 0, 9, -7667711, 0, 9, -7602175, 0, 9, -7536639, 0, 9, -7471103, 0, 9, -7405567, 0, 9, -7340031, 0, 9, -7274495, 0, 9, -7208959, 0, 9, -7143423, 0, 9, -7077887, 0, 9, -7012351, 0, 9, -6946815, 0, 9, -6881279, 0, 9, -6815743, 0, 9, -6750207, 0, 9, -6684671, 0, 9, -6619135, 0, 9, -6553599, 0, 9, -6488063, 0, 9, -6422527, 0, 9, -6356991, 0, 9, -6291455, 0, 9, -6225919, 0, 9, -6160383, 0, 9, -6094847, 0, 9, -6029311, 0, 9, -5963775, 0, 9, -5898239, 0, 9, -5832703, 0, 9, -5767167, 0, 9, -5701631, 0, 9, -5636095, 0, 9, -5570559, 0, 9, -5505023, 0, 9, -5439487, 0, 9, -5373951, 0, 9, -5308415, 0, 9, -5242879, 0, 9, -5177343, 0, 9, -5111807, 0, 9, -5046271, 0, 9, -4980735, 0, 9, -4915199, 0, 9, -4849663, 0, 9, -4784127, 0, 9, -4718591, 0, 9, -4653055, 0, 9, -4587519, 0, 9, -4521983, 0, 9, -4456447, 0, 9, -4390911, 0, 9, -4325375, 0, 9, -4259839, 0, 9, -4194303, 0, 9, -4128767, 0, 9, -4063231, 0, 9, -3997695, 0, 9, -3932159, 0, 9, -3866623, 0, 9, -3801087, 0, 9, -3735551, 0, 9, -3670015, 0, 9, -3604479, 0, 9, -3538943, 0, 9, -3473407, 0, 9, -3407871, 0, 9, -3342335, 0, 9, -3276799, 0, 9, -3211263, 0, 9, -3145727, 0, 9, -3080191, 0, 9, -3014655, 0, 9, -2949119, 0, 9, -2883583, 0, 9, -2818047, 0, 9, -2752511, 0, 9, -2686975, 0, 9, -2621439, 0, 9, -2555903, 0, 9, -10158078, 0, 9, -10092542, 0, 9, -10027006, 0, 9, -9961470, 0, 9, -9895934, 0, 9, -9830398, 0, 9, -9764862, 0, 9, -9699326, 0, 9, -9633790, 0, 9, -9568254, 0, 9, -9502718, 0, 9, -9437182, 0, 9, -9371646, 0, 9, -9306110, 0, 9, -9240574, 0, 9, -9175038, 0, 9, -9109502, 0, 9, -9043966, 0, 9, -8978430, 0, 9, -8912894, 0, 9, -8847358, 0, 9, -8781822, 0, 9, -8716286, 0, 9, -8650750, 0, 9, -8585214, 0, 9, -8519678, 0, 9, -8454142, 0, 9, -8388606, 0, 9, -8323070, 0, 9, -8257534, 0, 9, -8191998, 0, 9, -8126462, 0, 9, -8060926, 0, 9, -7995390, 0, 9, -7929854, 0, 9, -7864318, 0, 9, -7798782, 0, 9, -7733246, 0, 9, -7667710, 0, 9, -7602174, 0, 9, -7536638, 0, 9, -7471102, 0, 9, -7405566, 0, 9, -7340030, 0, 9, -7274494, 0, 9, -7208958, 0, 9, -7143422, 0, 9, -7077886, 0, 9, -7012350, 0, 9, -6946814, 0, 9, -6881278, 0, 9, -6815742, 0, 9, -6750206, 0, 9, -6684670, 0, 9, -6619134, 0, 9, -6553598, 0, 9, -6488062, 0, 9, -6422526, 0, 9, -6356990, 0, 9, -6291454, 0, 9, -6225918, 0, 9, -6160382, 0, 9, -6094846, 0, 9, -6029310, 0, 9, -5963774, 0, 9, -5898238, 0, 9, -5832702, 0, 9, -5767166, 0, 9, -5701630, 0, 9, -5636094, 0, 9, -5570558, 0, 9, -5505022, 0, 9, -5439486, 0, 9, -5373950, 0, 9, -5308414, 0, 9, -5242878, 0, 9, -5177342, 0, 9, -5111806, 0, 9, -5046270, 0, 9, -4980734, 0, 9, -4915198, 0, 9, -4849662, 0, 9, -4784126, 0, 9, -4718590, 0, 9, -4653054, 0, 9, -4587518, 0, 9, -4521982, 0, 9, -4456446, 0, 9, -4390910, 0, 9, -4325374, 0, 9, -4259838, 0, 9, -4194302, 0, 9, -4128766, 0, 9, -4063230, 0, 9, -3997694, 0, 9, -3932158, 0, 9, -3866622, 0, 9, -3801086, 0, 9, -3735550, 0, 9, -3670014, 0, 9, -3604478, 0, 9, -3538942, 0, 9, -3473406, 0, 9, -3407870, 0, 9, -3342334, 0, 9, -3276798, 0, 9, -3211262, 0, 9, -3145726, 0, 9, -3080190, 0, 9, -3014654, 0, 9, -2949118, 0, 9, -2883582, 0, 9, -2818046, 0, 9, -2752510, 0, 9, -2686974, 0, 9, -2621438, 0, 9, -2555902, 0, 9, -10158077, 0, 9, -10092541, 0, 9, -10027005, 0, 9, -9961469, 0, 9, -9895933, 0, 9, -9830397, 0, 9, -9764861, 0, 9, -9699325, 0, 9, -9633789, 0, 9, -9568253, 0, 9, -9502717, 0, 9, -9437181, 0, 9, -9371645, 0, 9, -9306109, 0, 9, -9240573, 0, 9, -9175037, 0, 9, -9109501, 0, 9, -9043965, 0, 9, -8978429, 0, 9, -8912893, 0, 9, -8847357, 0, 9, -8781821, 0, 9, -8716285, 0, 9, -8650749, 0, 9, -8585213, 0, 9, -8519677, 0, 9, -8454141, 0, 9, -8388605, 0, 9, -8323069, 0, 9, -8257533, 0, 9, -8191997, 0, 9, -8126461, 0, 9, -8060925, 0, 9, -7995389, 0, 9, -7929853, 0, 9, -7864317, 0, 9, -7798781, 0, 9, -7733245, 0, 9, -7667709, 0, 9, -7602173, 0, 9, -7536637, 0, 9, -7471101, 0, 9, -7405565, 0, 9, -7340029, 0, 9, -7274493, 0, 9, -7208957, 0, 9, -7143421, 0, 9, -7077885, 0, 9, -7012349, 0, 9, -6946813, 0, 9, -6881277, 0, 9, -6815741, 0, 9, -6750205, 0, 9, -6684669, 0, 9, -6619133, 0, 9, -6553597, 0, 9, -6488061, 0, 9, -6422525, 0, 9, -6356989, 0, 9, -6291453, 0, 9, -6225917, 0, 9, -6160381, 0, 9, -6094845, 0, 9, -6029309, 0, 9, -5963773, 0, 9, -5898237, 0, 9, -5832701, 0, 9, -5767165, 0, 9, -5701629, 0, 9, -5636093, 0, 9, -5570557, 0, 9, -5505021, 0, 9, -5439485, 0, 9, -5373949, 0, 9, -5308413, 0, 9, -5242877, 0, 9, -5177341, 0, 9, -5111805, 0, 9, -5046269, 0, 9, -4980733, 0, 9, -4915197, 0, 9, -4849661, 0, 9, -4784125, 0, 9, -4718589, 0, 9, -4653053, 0, 9, -4587517, 0, 9, -4521981, 0, 9, -4456445, 0, 9, -4390909, 0, 9, -4325373, 0, 9, -4259837, 0, 9, -4194301, 0, 9, -4128765, 0, 9, -4063229, 0, 9, -3997693, 0, 9, -3932157, 0, 9, -3866621, 0, 9, -3801085, 0, 9, -3735549, 0, 9, -3670013, 0, 9, -3604477, 0, 9, -3538941, 0, 9, -3473405, 0, 9, -3407869, 0, 9, -3342333, 0, 9, -3276797, 0, 9, -3211261, 0, 9, -3145725, 0, 9, -3080189, 0, 9, -3014653, 0, 9, -2949117, 0, 9, -2883581, 0, 9, -2818045, 0, 9, -2752509, 0, 9, -2686973, 0, 9, -2621437, 0, 9, -2555901, 0, 9, -393215, 131072, 805306377, -393214, 131072, 805306377, -393213, 131072, 805306377, -458750, 0, 9, -458749, 0, 9, 262148, 131072, 9, 262149, 131072, 9, 262150, 131072, 9, 262151, 131072, 9, 262152, 131072, 9, 262153, 131072, 9, 262154, 65536, 11, 196618, 131072, 1610612745, 131082, 131072, 1610612745, 65546, 131072, 1610612745, 10, 65536, 10, 327684, 0, 9, 393220, 0, 9, 458756, 0, 9, 524292, 0, 9, 589828, 0, 9, 655364, 0, 9, 720900, 0, 9, 786436, 0, 9, 851972, 0, 9, 917508, 0, 9, 983044, 0, 9, 1048580, 0, 9, 1114116, 0, 9, 1179652, 0, 9, 1245188, 0, 9, 1310724, 0, 9, 1376260, 0, 9, 1441796, 0, 9, 1507332, 0, 9, 1572868, 0, 9, 1638404, 0, 9, 1703940, 0, 9, 1769476, 0, 9, 1835012, 0, 9, 1900548, 0, 9, 1966084, 0, 9, 2031620, 0, 9, 2097156, 0, 9, 2162692, 0, 9, 2228228, 0, 9, 2293764, 0, 9, 2359300, 0, 9, 2424836, 0, 9, 2490372, 0, 9, 2555908, 0, 9, 2621444, 0, 9, 2686980, 0, 9, 2752516, 0, 9, 2818052, 0, 9, 2883588, 0, 9, 2949124, 0, 9, 3014660, 0, 9, 3080196, 0, 9, 3145732, 0, 9, 3211268, 0, 9, 3276804, 0, 9, 3342340, 0, 9, 3407876, 0, 9, 3473412, 0, 9, 3538948, 0, 9, 3604484, 0, 9, 3670020, 0, 9, 3735556, 0, 9, 3801092, 0, 9, 3866628, 0, 9, 3932164, 0, 9, 3997700, 0, 9, 4063236, 0, 9, 4128772, 0, 9, 4194308, 0, 9, 4259844, 0, 9, 4325380, 0, 9, 4390916, 0, 9, 4456452, 0, 9, 327685, 0, 9, 393221, 0, 9, 458757, 0, 9, 524293, 0, 9, 589829, 0, 9, 655365, 0, 9, 720901, 0, 9, 786437, 0, 9, 851973, 0, 9, 917509, 0, 9, 983045, 0, 9, 1048581, 0, 9, 1114117, 0, 9, 1179653, 0, 9, 1245189, 0, 9, 1310725, 0, 9, 1376261, 0, 9, 1441797, 0, 9, 1507333, 0, 9, 1572869, 0, 9, 1638405, 0, 9, 1703941, 0, 9, 1769477, 0, 9, 1835013, 0, 9, 1900549, 0, 9, 1966085, 0, 9, 2031621, 0, 9, 2097157, 0, 9, 2162693, 0, 9, 2228229, 0, 9, 2293765, 0, 9, 2359301, 0, 9, 2424837, 0, 9, 2490373, 0, 9, 2555909, 0, 9, 2621445, 0, 9, 2686981, 0, 9, 2752517, 0, 9, 2818053, 0, 9, 2883589, 0, 9, 2949125, 0, 9, 3014661, 0, 9, 3080197, 0, 9, 3145733, 0, 9, 3211269, 0, 9, 3276805, 0, 9, 3342341, 0, 9, 3407877, 0, 9, 3473413, 0, 9, 3538949, 0, 9, 3604485, 0, 9, 3670021, 0, 9, 3735557, 0, 9, 3801093, 0, 9, 3866629, 0, 9, 3932165, 0, 9, 3997701, 0, 9, 4063237, 0, 9, 4128773, 0, 9, 4194309, 0, 9, 4259845, 0, 9, 4325381, 0, 9, 4390917, 0, 9, 4456453, 0, 9, 327686, 0, 9, 393222, 0, 9, 458758, 0, 9, 524294, 0, 9, 589830, 0, 9, 655366, 0, 9, 720902, 0, 9, 786438, 0, 9, 851974, 0, 9, 917510, 0, 9, 983046, 0, 9, 1048582, 0, 9, 1114118, 0, 9, 1179654, 0, 9, 1245190, 0, 9, 1310726, 0, 9, 1376262, 0, 9, 1441798, 0, 9, 1507334, 0, 9, 1572870, 0, 9, 1638406, 0, 9, 1703942, 0, 9, 1769478, 0, 9, 1835014, 0, 9, 1900550, 0, 9, 1966086, 0, 9, 2031622, 0, 9, 2097158, 0, 9, 2162694, 0, 9, 2228230, 0, 9, 2293766, 0, 9, 2359302, 0, 9, 2424838, 0, 9, 2490374, 0, 9, 2555910, 0, 9, 2621446, 0, 9, 2686982, 0, 9, 2752518, 0, 9, 2818054, 0, 9, 2883590, 0, 9, 2949126, 0, 9, 3014662, 0, 9, 3080198, 0, 9, 3145734, 0, 9, 3211270, 0, 9, 3276806, 0, 9, 3342342, 0, 9, 3407878, 0, 9, 3473414, 0, 9, 3538950, 0, 9, 3604486, 0, 9, 3670022, 0, 9, 3735558, 0, 9, 3801094, 0, 9, 3866630, 0, 9, 3932166, 0, 9, 3997702, 0, 9, 4063238, 0, 9, 4128774, 0, 9, 4194310, 0, 9, 4259846, 0, 9, 4325382, 0, 9, 4390918, 0, 9, 4456454, 0, 9, 327687, 0, 9, 393223, 0, 9, 458759, 0, 9, 524295, 0, 9, 589831, 0, 9, 655367, 0, 9, 720903, 0, 9, 786439, 0, 9, 851975, 0, 9, 917511, 0, 9, 983047, 0, 9, 1048583, 0, 9, 1114119, 0, 9, 1179655, 0, 9, 1245191, 0, 9, 1310727, 0, 9, 1376263, 0, 9, 1441799, 0, 9, 1507335, 0, 9, 1572871, 0, 9, 1638407, 0, 9, 1703943, 0, 9, 1769479, 0, 9, 1835015, 0, 9, 1900551, 0, 9, 1966087, 0, 9, 2031623, 0, 9, 2097159, 0, 9, 2162695, 0, 9, 2228231, 0, 9, 2293767, 0, 9, 2359303, 0, 9, 2424839, 0, 9, 2490375, 0, 9, 2555911, 0, 9, 2621447, 0, 9, 2686983, 0, 9, 2752519, 0, 9, 2818055, 0, 9, 2883591, 0, 9, 2949127, 0, 9, 3014663, 0, 9, 3080199, 0, 9, 3145735, 0, 9, 3211271, 0, 9, 3276807, 0, 9, 3342343, 0, 9, 3407879, 0, 9, 3473415, 0, 9, 3538951, 0, 9, 3604487, 0, 9, 3670023, 0, 9, 3735559, 0, 9, 3801095, 0, 9, 3866631, 0, 9, 3932167, 0, 9, 3997703, 0, 9, 4063239, 0, 9, 4128775, 0, 9, 4194311, 0, 9, 4259847, 0, 9, 4325383, 0, 9, 4390919, 0, 9, 4456455, 0, 9, 327688, 0, 9, 393224, 0, 9, 458760, 0, 9, 524296, 0, 9, 589832, 0, 9, 655368, 0, 9, 720904, 0, 9, 786440, 0, 9, 851976, 0, 9, 917512, 0, 9, 983048, 0, 9, 1048584, 0, 9, 1114120, 0, 9, 1179656, 0, 9, 1245192, 0, 9, 1310728, 0, 9, 1376264, 0, 9, 1441800, 0, 9, 1507336, 0, 9, 1572872, 0, 9, 1638408, 0, 9, 1703944, 0, 9, 1769480, 0, 9, 1835016, 0, 9, 1900552, 0, 9, 1966088, 0, 9, 2031624, 0, 9, 2097160, 0, 9, 2162696, 0, 9, 2228232, 0, 9, 2293768, 0, 9, 2359304, 0, 9, 2424840, 0, 9, 2490376, 0, 9, 2555912, 0, 9, 2621448, 0, 9, 2686984, 0, 9, 2752520, 0, 9, 2818056, 0, 9, 2883592, 0, 9, 2949128, 0, 9, 3014664, 0, 9, 3080200, 0, 9, 3145736, 0, 9, 3211272, 0, 9, 3276808, 0, 9, 3342344, 0, 9, 3407880, 0, 9, 3473416, 0, 9, 3538952, 0, 9, 3604488, 0, 9, 3670024, 0, 9, 3735560, 0, 9, 3801096, 0, 9, 3866632, 0, 9, 3932168, 0, 9, 3997704, 0, 9, 4063240, 0, 9, 4128776, 0, 9, 4194312, 0, 9, 4259848, 0, 9, 4325384, 0, 9, 4390920, 0, 9, 4456456, 0, 9, 327689, 0, 9, 393225, 0, 9, 458761, 0, 9, 524297, 0, 9, 589833, 0, 9, 655369, 0, 9, 720905, 0, 9, 786441, 0, 9, 851977, 0, 9, 917513, 0, 9, 983049, 0, 9, 1048585, 0, 9, 1114121, 0, 9, 1179657, 0, 9, 1245193, 0, 9, 1310729, 0, 9, 1376265, 0, 9, 1441801, 0, 9, 1507337, 0, 9, 1572873, 0, 9, 1638409, 0, 9, 1703945, 0, 9, 1769481, 0, 9, 1835017, 0, 9, 1900553, 0, 9, 1966089, 0, 9, 2031625, 0, 9, 2097161, 0, 9, 2162697, 0, 9, 2228233, 0, 9, 2293769, 0, 9, 2359305, 0, 9, 2424841, 0, 9, 2490377, 0, 9, 2555913, 0, 9, 2621449, 0, 9, 2686985, 0, 9, 2752521, 0, 9, 2818057, 0, 9, 2883593, 0, 9, 2949129, 0, 9, 3014665, 0, 9, 3080201, 0, 9, 3145737, 0, 9, 3211273, 0, 9, 3276809, 0, 9, 3342345, 0, 9, 3407881, 0, 9, 3473417, 0, 9, 3538953, 0, 9, 3604489, 0, 9, 3670025, 0, 9, 3735561, 0, 9, 3801097, 0, 9, 3866633, 0, 9, 3932169, 0, 9, 3997705, 0, 9, 4063241, 0, 9, 4128777, 0, 9, 4194313, 0, 9, 4259849, 0, 9, 4325385, 0, 9, 4390921, 0, 9, 4456457, 0, 9, 327690, 0, 9, 393226, 0, 9, 458762, 0, 9, 524298, 0, 9, 589834, 0, 9, 655370, 0, 9, 720906, 0, 9, 786442, 0, 9, 851978, 0, 9, 917514, 0, 9, 983050, 0, 9, 1048586, 0, 9, 1114122, 0, 9, 1179658, 0, 9, 1245194, 0, 9, 1310730, 0, 9, 1376266, 0, 9, 1441802, 0, 9, 1507338, 0, 9, 1572874, 0, 9, 1638410, 0, 9, 1703946, 0, 9, 1769482, 0, 9, 1835018, 0, 9, 1900554, 0, 9, 1966090, 0, 9, 2031626, 0, 9, 2097162, 0, 9, 2162698, 0, 9, 2228234, 0, 9, 2293770, 0, 9, 2359306, 0, 9, 2424842, 0, 9, 2490378, 0, 9, 2555914, 0, 9, 2621450, 0, 9, 2686986, 0, 9, 2752522, 0, 9, 2818058, 0, 9, 2883594, 0, 9, 2949130, 0, 9, 3014666, 0, 9, 3080202, 0, 9, 3145738, 0, 9, 3211274, 0, 9, 3276810, 0, 9, 3342346, 0, 9, 3407882, 0, 9, 3473418, 0, 9, 3538954, 0, 9, 3604490, 0, 9, 3670026, 0, 9, 3735562, 0, 9, 3801098, 0, 9, 3866634, 0, 9, 3932170, 0, 9, 3997706, 0, 9, 4063242, 0, 9, 4128778, 0, 9, 4194314, 0, 9, 4259850, 0, 9, 4325386, 0, 9, 4390922, 0, 9, 4456458, 0, 9, -10158076, 0, 9, -10092540, 0, 9, -10027004, 0, 9, -9961468, 0, 9, -9895932, 0, 9, -9830396, 0, 9, -9764860, 0, 9, -9699324, 0, 9, -9633788, 0, 9, -9568252, 0, 9, -9502716, 0, 9, -9437180, 0, 9, -9371644, 0, 9, -9306108, 0, 9, -9240572, 0, 9, -9175036, 0, 9, -9109500, 0, 9, -9043964, 0, 9, -8978428, 0, 9, -8912892, 0, 9, -8847356, 0, 9, -8781820, 0, 9, -8716284, 0, 9, -8650748, 0, 9, -8585212, 0, 9, -8519676, 0, 9, -8454140, 0, 9, -8388604, 0, 9, -8323068, 0, 9, -8257532, 0, 9, -8191996, 0, 9, -8126460, 0, 9, -8060924, 0, 9, -7995388, 0, 9, -7929852, 0, 9, -7864316, 0, 9, -7798780, 0, 9, -7733244, 0, 9, -7667708, 0, 9, -7602172, 0, 9, -7536636, 0, 9, -7471100, 0, 9, -7405564, 0, 9, -7340028, 0, 9, -7274492, 0, 9, -7208956, 0, 9, -7143420, 0, 9, -7077884, 0, 9, -7012348, 0, 9, -6946812, 0, 9, -6881276, 0, 9, -6815740, 0, 9, -6750204, 0, 9, -6684668, 0, 9, -6619132, 0, 9, -6553596, 0, 9, -6488060, 0, 9, -6422524, 0, 9, -6356988, 0, 9, -6291452, 0, 9, -6225916, 0, 9, -6160380, 0, 9, -6094844, 0, 9, -6029308, 0, 9, -5963772, 0, 9, -5898236, 0, 9, -5832700, 0, 9, -5767164, 0, 9, -5701628, 0, 9, -5636092, 0, 9, -5570556, 0, 9, -5505020, 0, 9, -5439484, 0, 9, -5373948, 0, 9, -5308412, 0, 9, -5242876, 0, 9, -5177340, 0, 9, -5111804, 0, 9, -5046268, 0, 9, -4980732, 0, 9, -4915196, 0, 9, -4849660, 0, 9, -4784124, 0, 9, -4718588, 0, 9, -4653052, 0, 9, -4587516, 0, 9, -4521980, 0, 9, -4456444, 0, 9, -4390908, 0, 9, -4325372, 0, 9, -4259836, 0, 9, -4194300, 0, 9, -4128764, 0, 9, -4063228, 0, 9, -3997692, 0, 9, -3932156, 0, 9, -3866620, 0, 9, -3801084, 0, 9, -3735548, 0, 9, -3670012, 0, 9, -3604476, 0, 9, -3538940, 0, 9, -3473404, 0, 9, -3407868, 0, 9, -3342332, 0, 9, -3276796, 0, 9, -3211260, 0, 9, -3145724, 0, 9, -3080188, 0, 9, -3014652, 0, 9, -2949116, 0, 9, -2883580, 0, 9, -2818044, 0, 9, -2752508, 0, 9, -2686972, 0, 9, -2621436, 0, 9, -2555900, 0, 9, -2490364, 0, 9, -2424828, 0, 9, -2359292, 0, 9, -2293756, 0, 9, -2228220, 0, 9, -2162684, 0, 9, -2097148, 0, 9, -2031612, 0, 9, -1966076, 0, 9, -1900540, 0, 9, -1835004, 0, 9, -1769468, 0, 9, -1703932, 0, 9, -1638396, 0, 9, -1572860, 0, 9, -1507324, 0, 9, -1441788, 0, 9, -1376252, 0, 9, -1310716, 0, 9, -1245180, 0, 9, -1179644, 0, 9, -1114108, 0, 9, -1048572, 0, 9, -983036, 0, 9, -917500, 0, 9, -851964, 0, 9, -786428, 0, 9, -720892, 0, 9, -655356, 0, 9, -589820, 0, 9, -524284, 0, 9, -458748, 0, 9, -10158075, 0, 9, -10092539, 0, 9, -10027003, 0, 9, -9961467, 0, 9, -9895931, 0, 9, -9830395, 0, 9, -9764859, 0, 9, -9699323, 0, 9, -9633787, 0, 9, -9568251, 0, 9, -9502715, 0, 9, -9437179, 0, 9, -9371643, 0, 9, -9306107, 0, 9, -9240571, 0, 9, -9175035, 0, 9, -9109499, 0, 9, -9043963, 0, 9, -8978427, 0, 9, -8912891, 0, 9, -8847355, 0, 9, -8781819, 0, 9, -8716283, 0, 9, -8650747, 0, 9, -8585211, 0, 9, -8519675, 0, 9, -8454139, 0, 9, -8388603, 0, 9, -8323067, 0, 9, -8257531, 0, 9, -8191995, 0, 9, -8126459, 0, 9, -8060923, 0, 9, -7995387, 0, 9, -7929851, 0, 9, -7864315, 0, 9, -7798779, 0, 9, -7733243, 0, 9, -7667707, 0, 9, -7602171, 0, 9, -7536635, 0, 9, -7471099, 0, 9, -7405563, 0, 9, -7340027, 0, 9, -7274491, 0, 9, -7208955, 0, 9, -7143419, 0, 9, -7077883, 0, 9, -7012347, 0, 9, -6946811, 0, 9, -6881275, 0, 9, -6815739, 0, 9, -6750203, 0, 9, -6684667, 0, 9, -6619131, 0, 9, -6553595, 0, 9, -6488059, 0, 9, -6422523, 0, 9, -6356987, 0, 9, -6291451, 0, 9, -6225915, 0, 9, -6160379, 0, 9, -6094843, 0, 9, -6029307, 0, 9, -5963771, 0, 9, -5898235, 0, 9, -5832699, 0, 9, -5767163, 0, 9, -5701627, 0, 9, -5636091, 0, 9, -5570555, 0, 9, -5505019, 0, 9, -5439483, 0, 9, -5373947, 0, 9, -5308411, 0, 9, -5242875, 0, 9, -5177339, 0, 9, -5111803, 0, 9, -5046267, 0, 9, -4980731, 0, 9, -4915195, 0, 9, -4849659, 0, 9, -4784123, 0, 9, -4718587, 0, 9, -4653051, 0, 9, -4587515, 0, 9, -4521979, 0, 9, -4456443, 0, 9, -4390907, 0, 9, -4325371, 0, 9, -4259835, 0, 9, -4194299, 0, 9, -4128763, 0, 9, -4063227, 0, 9, -3997691, 0, 9, -3932155, 0, 9, -3866619, 0, 9, -3801083, 0, 9, -3735547, 0, 9, -3670011, 0, 9, -3604475, 0, 9, -3538939, 0, 9, -3473403, 0, 9, -3407867, 0, 9, -3342331, 0, 9, -3276795, 0, 9, -3211259, 0, 9, -3145723, 0, 9, -3080187, 0, 9, -3014651, 0, 9, -2949115, 0, 9, -2883579, 0, 9, -2818043, 0, 9, -2752507, 0, 9, -2686971, 0, 9, -2621435, 0, 9, -2555899, 0, 9, -2490363, 0, 9, -2424827, 0, 9, -2359291, 0, 9, -2293755, 0, 9, -2228219, 0, 9, -2162683, 0, 9, -2097147, 0, 9, -2031611, 0, 9, -1966075, 0, 9, -1900539, 0, 9, -1835003, 0, 9, -1769467, 0, 9, -1703931, 0, 9, -1638395, 0, 9, -1572859, 0, 9, -1507323, 0, 9, -1441787, 0, 9, -1376251, 0, 9, -1310715, 0, 9, -1245179, 0, 9, -1179643, 0, 9, -1114107, 0, 9, -1048571, 0, 9, -983035, 0, 9, -917499, 0, 9, -851963, 0, 9, -786427, 0, 9, -720891, 0, 9, -655355, 0, 9, -589819, 0, 9, -524283, 0, 9, -458747, 0, 9, -10158074, 0, 9, -10092538, 0, 9, -10027002, 0, 9, -9961466, 0, 9, -9895930, 0, 9, -9830394, 0, 9, -9764858, 0, 9, -9699322, 0, 9, -9633786, 0, 9, -9568250, 0, 9, -9502714, 0, 9, -9437178, 0, 9, -9371642, 0, 9, -9306106, 0, 9, -9240570, 0, 9, -9175034, 0, 9, -9109498, 0, 9, -9043962, 0, 9, -8978426, 0, 9, -8912890, 0, 9, -8847354, 0, 9, -8781818, 0, 9, -8716282, 0, 9, -8650746, 0, 9, -8585210, 0, 9, -8519674, 0, 9, -8454138, 0, 9, -8388602, 0, 9, -8323066, 0, 9, -8257530, 0, 9, -8191994, 0, 9, -8126458, 0, 9, -8060922, 0, 9, -7995386, 0, 9, -7929850, 0, 9, -7864314, 0, 9, -7798778, 0, 9, -7733242, 0, 9, -7667706, 0, 9, -7602170, 0, 9, -7536634, 0, 9, -7471098, 0, 9, -7405562, 0, 9, -7340026, 0, 9, -7274490, 0, 9, -7208954, 0, 9, -7143418, 0, 9, -7077882, 0, 9, -7012346, 0, 9, -6946810, 0, 9, -6881274, 0, 9, -6815738, 0, 9, -6750202, 0, 9, -6684666, 0, 9, -6619130, 0, 9, -6553594, 0, 9, -6488058, 0, 9, -6422522, 0, 9, -6356986, 0, 9, -6291450, 0, 9, -6225914, 0, 9, -6160378, 0, 9, -6094842, 0, 9, -6029306, 0, 9, -5963770, 0, 9, -5898234, 0, 9, -5832698, 0, 9, -5767162, 0, 9, -5701626, 0, 9, -5636090, 0, 9, -5570554, 0, 9, -5505018, 0, 9, -5439482, 0, 9, -5373946, 0, 9, -5308410, 0, 9, -5242874, 0, 9, -5177338, 0, 9, -5111802, 0, 9, -5046266, 0, 9, -4980730, 0, 9, -4915194, 0, 9, -4849658, 0, 9, -4784122, 0, 9, -4718586, 0, 9, -4653050, 0, 9, -4587514, 0, 9, -4521978, 0, 9, -4456442, 0, 9, -4390906, 0, 9, -4325370, 0, 9, -4259834, 0, 9, -4194298, 0, 9, -4128762, 0, 9, -4063226, 0, 9, -3997690, 0, 9, -3932154, 0, 9, -3866618, 0, 9, -3801082, 0, 9, -3735546, 0, 9, -3670010, 0, 9, -3604474, 0, 9, -3538938, 0, 9, -3473402, 0, 9, -3407866, 0, 9, -3342330, 0, 9, -3276794, 0, 9, -3211258, 0, 9, -3145722, 0, 9, -3080186, 0, 9, -3014650, 0, 9, -2949114, 0, 9, -2883578, 0, 9, -2818042, 0, 9, -2752506, 0, 9, -2686970, 0, 9, -2621434, 0, 9, -2555898, 0, 9, -2490362, 0, 9, -2424826, 0, 9, -2359290, 0, 9, -2293754, 0, 9, -2228218, 0, 9, -2162682, 0, 9, -2097146, 0, 9, -2031610, 0, 9, -1966074, 0, 9, -1900538, 0, 9, -1835002, 0, 9, -1769466, 0, 9, -1703930, 0, 9, -1638394, 0, 9, -1572858, 0, 9, -1507322, 0, 9, -1441786, 0, 9, -1376250, 0, 9, -1310714, 0, 9, -1245178, 0, 9, -1179642, 0, 9, -1114106, 0, 9, -1048570, 0, 9, -983034, 0, 9, -917498, 0, 9, -851962, 0, 9, -786426, 0, 9, -720890, 0, 9, -655354, 0, 9, -589818, 0, 9, -524282, 0, 9, -458746, 0, 9, -10158073, 0, 9, -10092537, 0, 9, -10027001, 0, 9, -9961465, 0, 9, -9895929, 0, 9, -9830393, 0, 9, -9764857, 0, 9, -9699321, 0, 9, -9633785, 0, 9, -9568249, 0, 9, -9502713, 0, 9, -9437177, 0, 9, -9371641, 0, 9, -9306105, 0, 9, -9240569, 0, 9, -9175033, 0, 9, -9109497, 0, 9, -9043961, 0, 9, -8978425, 0, 9, -8912889, 0, 9, -8847353, 0, 9, -8781817, 0, 9, -8716281, 0, 9, -8650745, 0, 9, -8585209, 0, 9, -8519673, 0, 9, -8454137, 0, 9, -8388601, 0, 9, -8323065, 0, 9, -8257529, 0, 9, -8191993, 0, 9, -8126457, 0, 9, -8060921, 0, 9, -7995385, 0, 9, -7929849, 0, 9, -7864313, 0, 9, -7798777, 0, 9, -7733241, 0, 9, -7667705, 0, 9, -7602169, 0, 9, -7536633, 0, 9, -7471097, 0, 9, -7405561, 0, 9, -7340025, 0, 9, -7274489, 0, 9, -7208953, 0, 9, -7143417, 0, 9, -7077881, 0, 9, -7012345, 0, 9, -6946809, 0, 9, -6881273, 0, 9, -6815737, 0, 9, -6750201, 0, 9, -6684665, 0, 9, -6619129, 0, 9, -6553593, 0, 9, -6488057, 0, 9, -6422521, 0, 9, -6356985, 0, 9, -6291449, 0, 9, -6225913, 0, 9, -6160377, 0, 9, -6094841, 0, 9, -6029305, 0, 9, -5963769, 0, 9, -5898233, 0, 9, -5832697, 0, 9, -5767161, 0, 9, -5701625, 0, 9, -5636089, 0, 9, -5570553, 0, 9, -5505017, 0, 9, -5439481, 0, 9, -5373945, 0, 9, -5308409, 0, 9, -5242873, 0, 9, -5177337, 0, 9, -5111801, 0, 9, -5046265, 0, 9, -4980729, 0, 9, -4915193, 0, 9, -4849657, 0, 9, -4784121, 0, 9, -4718585, 0, 9, -4653049, 0, 9, -4587513, 0, 9, -4521977, 0, 9, -4456441, 0, 9, -4390905, 0, 9, -4325369, 0, 9, -4259833, 0, 9, -4194297, 0, 9, -4128761, 0, 9, -4063225, 0, 9, -3997689, 0, 9, -3932153, 0, 9, -3866617, 0, 9, -3801081, 0, 9, -3735545, 0, 9, -3670009, 0, 9, -3604473, 0, 9, -3538937, 0, 9, -3473401, 0, 9, -3407865, 0, 9, -3342329, 0, 9, -3276793, 0, 9, -3211257, 0, 9, -3145721, 0, 9, -3080185, 0, 9, -3014649, 0, 9, -2949113, 0, 9, -2883577, 0, 9, -2818041, 0, 9, -2752505, 0, 9, -2686969, 0, 9, -2621433, 0, 9, -2555897, 0, 9, -2490361, 0, 9, -2424825, 0, 9, -2359289, 0, 9, -2293753, 0, 9, -2228217, 0, 9, -2162681, 0, 9, -2097145, 0, 9, -2031609, 0, 9, -1966073, 0, 9, -1900537, 0, 9, -1835001, 0, 9, -1769465, 0, 9, -1703929, 0, 9, -1638393, 0, 9, -1572857, 0, 9, -1507321, 0, 9, -1441785, 0, 9, -1376249, 0, 9, -1310713, 0, 9, -1245177, 0, 9, -1179641, 0, 9, -1114105, 0, 9, -1048569, 0, 9, -983033, 0, 9, -917497, 0, 9, -851961, 0, 9, -786425, 0, 9, -720889, 0, 9, -655353, 0, 9, -589817, 0, 9, -524281, 0, 9, -458745, 0, 9, -10158072, 0, 9, -10092536, 0, 9, -10027000, 0, 9, -9961464, 0, 9, -9895928, 0, 9, -9830392, 0, 9, -9764856, 0, 9, -9699320, 0, 9, -9633784, 0, 9, -9568248, 0, 9, -9502712, 0, 9, -9437176, 0, 9, -9371640, 0, 9, -9306104, 0, 9, -9240568, 0, 9, -9175032, 0, 9, -9109496, 0, 9, -9043960, 0, 9, -8978424, 0, 9, -8912888, 0, 9, -8847352, 0, 9, -8781816, 0, 9, -8716280, 0, 9, -8650744, 0, 9, -8585208, 0, 9, -8519672, 0, 9, -8454136, 0, 9, -8388600, 0, 9, -8323064, 0, 9, -8257528, 0, 9, -8191992, 0, 9, -8126456, 0, 9, -8060920, 0, 9, -7995384, 0, 9, -7929848, 0, 9, -7864312, 0, 9, -7798776, 0, 9, -7733240, 0, 9, -7667704, 0, 9, -7602168, 0, 9, -7536632, 0, 9, -7471096, 0, 9, -7405560, 0, 9, -7340024, 0, 9, -7274488, 0, 9, -7208952, 0, 9, -7143416, 0, 9, -7077880, 0, 9, -7012344, 0, 9, -6946808, 0, 9, -6881272, 0, 9, -6815736, 0, 9, -6750200, 0, 9, -6684664, 0, 9, -6619128, 0, 9, -6553592, 0, 9, -6488056, 0, 9, -6422520, 0, 9, -6356984, 0, 9, -6291448, 0, 9, -6225912, 0, 9, -6160376, 0, 9, -6094840, 0, 9, -6029304, 0, 9, -5963768, 0, 9, -5898232, 0, 9, -5832696, 0, 9, -5767160, 0, 9, -5701624, 0, 9, -5636088, 0, 9, -5570552, 0, 9, -5505016, 0, 9, -5439480, 0, 9, -5373944, 0, 9, -5308408, 0, 9, -5242872, 0, 9, -5177336, 0, 9, -5111800, 0, 9, -5046264, 0, 9, -4980728, 0, 9, -4915192, 0, 9, -4849656, 0, 9, -4784120, 0, 9, -4718584, 0, 9, -4653048, 0, 9, -4587512, 0, 9, -4521976, 0, 9, -4456440, 0, 9, -4390904, 0, 9, -4325368, 0, 9, -4259832, 0, 9, -4194296, 0, 9, -4128760, 0, 9, -4063224, 0, 9, -3997688, 0, 9, -3932152, 0, 9, -3866616, 0, 9, -3801080, 0, 9, -3735544, 0, 9, -3670008, 0, 9, -3604472, 0, 9, -3538936, 0, 9, -3473400, 0, 9, -3407864, 0, 9, -3342328, 0, 9, -3276792, 0, 9, -3211256, 0, 9, -3145720, 0, 9, -3080184, 0, 9, -3014648, 0, 9, -2949112, 0, 9, -2883576, 0, 9, -2818040, 0, 9, -2752504, 0, 9, -2686968, 0, 9, -2621432, 0, 9, -2555896, 0, 9, -2490360, 0, 9, -2424824, 0, 9, -2359288, 0, 9, -2293752, 0, 9, -2228216, 0, 9, -2162680, 0, 9, -2097144, 0, 9, -2031608, 0, 9, -1966072, 0, 9, -1900536, 0, 9, -1835000, 0, 9, -1769464, 0, 9, -1703928, 0, 9, -1638392, 0, 9, -1572856, 0, 9, -1507320, 0, 9, -1441784, 0, 9, -1376248, 0, 9, -1310712, 0, 9, -1245176, 0, 9, -1179640, 0, 9, -1114104, 0, 9, -1048568, 0, 9, -983032, 0, 9, -917496, 0, 9, -851960, 0, 9, -786424, 0, 9, -720888, 0, 9, -655352, 0, 9, -589816, 0, 9, -524280, 0, 9, -458744, 0, 9, -10158071, 0, 9, -10092535, 0, 9, -10026999, 0, 9, -9961463, 0, 9, -9895927, 0, 9, -9830391, 0, 9, -9764855, 0, 9, -9699319, 0, 9, -9633783, 0, 9, -9568247, 0, 9, -9502711, 0, 9, -9437175, 0, 9, -9371639, 0, 9, -9306103, 0, 9, -9240567, 0, 9, -9175031, 0, 9, -9109495, 0, 9, -9043959, 0, 9, -8978423, 0, 9, -8912887, 0, 9, -8847351, 0, 9, -8781815, 0, 9, -8716279, 0, 9, -8650743, 0, 9, -8585207, 0, 9, -8519671, 0, 9, -8454135, 0, 9, -8388599, 0, 9, -8323063, 0, 9, -8257527, 0, 9, -8191991, 0, 9, -8126455, 0, 9, -8060919, 0, 9, -7995383, 0, 9, -7929847, 0, 9, -7864311, 0, 9, -7798775, 0, 9, -7733239, 0, 9, -7667703, 0, 9, -7602167, 0, 9, -7536631, 0, 9, -7471095, 0, 9, -7405559, 0, 9, -7340023, 0, 9, -7274487, 0, 9, -7208951, 0, 9, -7143415, 0, 9, -7077879, 0, 9, -7012343, 0, 9, -6946807, 0, 9, -6881271, 0, 9, -6815735, 0, 9, -6750199, 0, 9, -6684663, 0, 9, -6619127, 0, 9, -6553591, 0, 9, -6488055, 0, 9, -6422519, 0, 9, -6356983, 0, 9, -6291447, 0, 9, -6225911, 0, 9, -6160375, 0, 9, -6094839, 0, 9, -6029303, 0, 9, -5963767, 0, 9, -5898231, 0, 9, -5832695, 0, 9, -5767159, 0, 9, -5701623, 0, 9, -5636087, 0, 9, -5570551, 0, 9, -5505015, 0, 9, -5439479, 0, 9, -5373943, 0, 9, -5308407, 0, 9, -5242871, 0, 9, -5177335, 0, 9, -5111799, 0, 9, -5046263, 0, 9, -4980727, 0, 9, -4915191, 0, 9, -4849655, 0, 9, -4784119, 0, 9, -4718583, 0, 9, -4653047, 0, 9, -4587511, 0, 9, -4521975, 0, 9, -4456439, 0, 9, -4390903, 0, 9, -4325367, 0, 9, -4259831, 0, 9, -4194295, 0, 9, -4128759, 0, 9, -4063223, 0, 9, -3997687, 0, 9, -3932151, 0, 9, -3866615, 0, 9, -3801079, 0, 9, -3735543, 0, 9, -3670007, 0, 9, -3604471, 0, 9, -3538935, 0, 9, -3473399, 0, 9, -3407863, 0, 9, -3342327, 0, 9, -3276791, 0, 9, -3211255, 0, 9, -3145719, 0, 9, -3080183, 0, 9, -3014647, 0, 9, -2949111, 0, 9, -2883575, 0, 9, -2818039, 0, 9, -2752503, 0, 9, -2686967, 0, 9, -2621431, 0, 9, -2555895, 0, 9, -2490359, 0, 9, -2424823, 0, 9, -2359287, 0, 9, -2293751, 0, 9, -2228215, 0, 9, -2162679, 0, 9, -2097143, 0, 9, -2031607, 0, 9, -1966071, 0, 9, -1900535, 0, 9, -1834999, 0, 9, -1769463, 0, 9, -1703927, 0, 9, -1638391, 0, 9, -1572855, 0, 9, -1507319, 0, 9, -1441783, 0, 9, -1376247, 0, 9, -1310711, 0, 9, -1245175, 0, 9, -1179639, 0, 9, -1114103, 0, 9, -1048567, 0, 9, -983031, 0, 9, -917495, 0, 9, -851959, 0, 9, -786423, 0, 9, -720887, 0, 9, -655351, 0, 9, -589815, 0, 9, -524279, 0, 9, -458743, 0, 9, -10158070, 0, 9, -10092534, 0, 9, -10026998, 0, 9, -9961462, 0, 9, -9895926, 0, 9, -9830390, 0, 9, -9764854, 0, 9, -9699318, 0, 9, -9633782, 0, 9, -9568246, 0, 9, -9502710, 0, 9, -9437174, 0, 9, -9371638, 0, 9, -9306102, 0, 9, -9240566, 0, 9, -9175030, 0, 9, -9109494, 0, 9, -9043958, 0, 9, -8978422, 0, 9, -8912886, 0, 9, -8847350, 0, 9, -8781814, 0, 9, -8716278, 0, 9, -8650742, 0, 9, -8585206, 0, 9, -8519670, 0, 9, -8454134, 0, 9, -8388598, 0, 9, -8323062, 0, 9, -8257526, 0, 9, -8191990, 0, 9, -8126454, 0, 9, -8060918, 0, 9, -7995382, 0, 9, -7929846, 0, 9, -7864310, 0, 9, -7798774, 0, 9, -7733238, 0, 9, -7667702, 0, 9, -7602166, 0, 9, -7536630, 0, 9, -7471094, 0, 9, -7405558, 0, 9, -7340022, 0, 9, -7274486, 0, 9, -7208950, 0, 9, -7143414, 0, 9, -7077878, 0, 9, -7012342, 0, 9, -6946806, 0, 9, -6881270, 0, 9, -6815734, 0, 9, -6750198, 0, 9, -6684662, 0, 9, -6619126, 0, 9, -6553590, 0, 9, -6488054, 0, 9, -6422518, 0, 9, -6356982, 0, 9, -6291446, 0, 9, -6225910, 0, 9, -6160374, 0, 9, -6094838, 0, 9, -6029302, 0, 9, -5963766, 0, 9, -5898230, 0, 9, -5832694, 0, 9, -5767158, 0, 9, -5701622, 0, 9, -5636086, 0, 9, -5570550, 0, 9, -5505014, 0, 9, -5439478, 0, 9, -5373942, 0, 9, -5308406, 0, 9, -5242870, 0, 9, -5177334, 0, 9, -5111798, 0, 9, -5046262, 0, 9, -4980726, 0, 9, -4915190, 0, 9, -4849654, 0, 9, -4784118, 0, 9, -4718582, 0, 9, -4653046, 0, 9, -4587510, 0, 9, -4521974, 0, 9, -4456438, 0, 9, -4390902, 0, 9, -4325366, 0, 9, -4259830, 0, 9, -4194294, 0, 9, -4128758, 0, 9, -4063222, 0, 9, -3997686, 0, 9, -3932150, 0, 9, -3866614, 0, 9, -3801078, 0, 9, -3735542, 0, 9, -3670006, 0, 9, -3604470, 0, 9, -3538934, 0, 9, -3473398, 0, 9, -3407862, 0, 9, -3342326, 0, 9, -3276790, 0, 9, -3211254, 0, 9, -3145718, 0, 9, -3080182, 0, 9, -3014646, 0, 9, -2949110, 0, 9, -2883574, 0, 9, -2818038, 0, 9, -2752502, 0, 9, -2686966, 0, 9, -2621430, 0, 9, -2555894, 0, 9, -2490358, 0, 9, -2424822, 0, 9, -2359286, 0, 9, -2293750, 0, 9, -2228214, 0, 9, -2162678, 0, 9, -2097142, 0, 9, -2031606, 0, 9, -1966070, 0, 9, -1900534, 0, 9, -1834998, 0, 9, -1769462, 0, 9, -1703926, 0, 9, -1638390, 0, 9, -1572854, 0, 9, -1507318, 0, 9, -1441782, 0, 9, -1376246, 0, 9, -1310710, 0, 9, -1245174, 0, 9, -1179638, 0, 9, -1114102, 0, 9, -1048566, 0, 9, -983030, 0, 9, -917494, 0, 9, -851958, 0, 9, -786422, 0, 9, -720886, 0, 9, -655350, 0, 9, -589814, 0, 9, -524278, 0, 9, -458742, 0, 9, -393212, 131072, 805306377, -393211, 131072, 805306377, -393210, 131072, 805306377, -393209, 131072, 805306377, -393208, 131072, 805306377, -393207, 131072, 805306377, -393206, 131072, 805306377)
layer_1/name = "Water"
layer_1/z_index = 1
layer_1/tile_data = PackedInt32Array(196609, 851968, 9, 196610, 851968, 9, 196611, 851968, 9, 196612, 851968, 9, 196613, 851968, 9, 196614, 851968, 9, 196615, 851968, 9, 196616, 851968, 9, 196617, 851968, 9)

[node name="BackgroundTileMap" type="TileMap" parent="."]
tile_set = ExtResource("2_qpehl")
format = 2
layer_0/name = "Background"
layer_0/z_index = -1
layer_0/tile_data = PackedInt32Array(-327680, 0, 131072, -262144, 0, 131072, -196608, 0, 131072, -131072, 0, 131072, -65536, 0, 131072, -327679, 0, 131072, -262143, 0, 131072, -196607, 0, 131072, -131071, 0, 131072, -65535, 0, 131072, -327678, 0, 131072, -262142, 0, 131072, -196606, 0, 131072, -131070, 0, 131072, -65534, 0, 131072, -327677, 0, 131072, -262141, 0, 131072, -196605, 0, 131072, -131069, 0, 131072, -65533, 0, 131072, -393216, 0, 131072, -393215, 0, 131072, -393214, 0, 131072, -393213, 0, 131072, -458752, 0, 131072, -458751, 0, 131072, -458750, 0, 131072, -458749, 0, 131072, 0, 0, 131072, 1, 0, 131072, 2, 0, 131072, 3, 0, 131072, 65539, 0, 131072, -524285, 0, 131072, -524286, 0, 131072, -589822, 0, 131072, -589823, 0, 131072, -655359, 0, 131072, -655360, 0, 131072, -655357, 0, 131072, -589821, 0, 131072, -655358, 0, 131072, -524288, 0, 131072, -524287, 0, 131072, 65537, 0, 131072, 131072, 0, 131072, 65536, 0, 131072, 196608, 0, 131072, 131073, 0, 131072, 196609, 0, 131072, 65538, 0, 131072, 131074, 0, 131072, 196610, 0, 131072, 131075, 0, 131072, 196611, 0, 131072, -327676, 0, 131072, -262140, 0, 131072, -196604, 0, 131072, -131068, 0, 131072, -65532, 0, 131072, 4, 0, 131072, 65540, 0, 131072, 131076, 0, 131072, 196612, 0, 131072, -327675, 0, 131072, -262139, 0, 131072, -196603, 0, 131072, -131067, 0, 131072, -65531, 0, 131072, 5, 0, 131072, 65541, 0, 131072, 131077, 0, 131072, 196613, 0, 131072, -327674, 0, 131072, -262138, 0, 131072, -196602, 0, 131072, -131066, 0, 131072, -65530, 0, 131072, 6, 0, 131072, 65542, 0, 131072, 131078, 0, 131072, 196614, 0, 131072, -327673, 0, 131072, -262137, 0, 131072, -196601, 0, 131072, -131065, 0, 131072, -65529, 0, 131072, 7, 0, 131072, 65543, 0, 131072, 131079, 0, 131072, 196615, 0, 131072, -327672, 0, 131072, -262136, 0, 131072, -196600, 0, 131072, -131064, 0, 131072, -65528, 0, 131072, 8, 0, 131072, 65544, 0, 131072, 131080, 0, 131072, 196616, 0, 131072, -327671, 0, 131072, -262135, 0, 131072, -196599, 0, 131072, -131063, 0, 131072, -65527, 0, 131072, 9, 0, 131072, 65545, 0, 131072, 131081, 0, 131072, 196617, 0, 131072, -327670, 0, 131072, -262134, 0, 131072, -196598, 0, 131072, -131062, 0, 131072, -65526, 0, 131072, 10, 0, 131072, 65546, 0, 131072, 131082, 0, 131072, 196618, 0, 131072)

[node name="BackgroundTileMap3" type="TileMap" parent="."]
tile_set = ExtResource("2_qpehl")
format = 2
layer_0/name = "Background"
layer_0/z_index = -1
layer_0/tile_data = PackedInt32Array(0, 0, 131072, 1, 0, 131072, 2, 0, 131072, 3, 0, 131072, 65539, 0, 131072)

[node name="BackgroundTileMap2" type="TileMap" parent="."]
tile_set = ExtResource("2_qpehl")
format = 2
layer_0/name = "Background"
layer_0/z_index = -1
layer_0/tile_data = PackedInt32Array(0, 0, 131072, 3, 0, 131072, 65539, 0, 131072)

[node name="LevelStart" type="Marker2D" parent="."]

[node name="LevelEnd" type="Marker2D" parent="."]
position = Vector2(704, 0)

[node name="trap" parent="." instance=ExtResource("3_pdnjx")]
position = Vector2(128, -128)
blocksY = 5

[node name="trap2" parent="." instance=ExtResource("3_pdnjx")]
position = Vector2(320, -128)
blocksY = 5
delay = 0.5
speed_multiplier = 3.0

[node name="trap3" parent="." instance=ExtResource("3_pdnjx")]
position = Vector2(512, -128)
blocksY = 5
delay = 0.75
speed_multiplier = 2.0

[node name="DangerZone" parent="." instance=ExtResource("4_oneob")]

[node name="CollisionShape2D" type="CollisionShape2D" parent="DangerZone"]
position = Vector2(352, 240.5)
shape = SubResource("RectangleShape2D_erjb7")
