[gd_scene load_steps=3 format=3 uid="uid://cgmivv7g0wnxb"]

[ext_resource type="Script" path="res://assets/scripts/classes/Level.gd" id="1_qblgr"]
[ext_resource type="TileSet" uid="uid://vf2870j4378j" path="res://assets/level_02.tres" id="2_fmcva"]

[node name="Level" type="Node2D" node_paths=PackedStringArray("level_start", "level_end")]
script = ExtResource("1_qblgr")
level_id = 1
level_start = NodePath("LevelStart")
level_end = NodePath("LevelEnd")

[node name="MainTilemap" type="TileMap" parent="."]
tile_set = ExtResource("2_fmcva")
format = 2
layer_0/name = "Platforms"
layer_0/tile_data = PackedInt32Array(1638400, 0, 9, 1638401, 0, 9, 1638402, 0, 9, 1638403, 0, 9, -2490368, 0, 9, -2490367, 0, 9, -2490366, 0, 9, -2490365, 0, 9, 0, 131072, 10, 3, 65536, 10, 65536, 131072, 11, 131072, 0, 9, 196608, 0, 9, 262144, 0, 9, 327680, 0, 9, 393216, 0, 9, 458752, 0, 9, 524288, 0, 9, 589824, 0, 9, 655360, 0, 9, 720896, 0, 9, 786432, 0, 9, 851968, 0, 9, 917504, 0, 9, 983040, 0, 9, 1048576, 0, 9, 1114112, 0, 9, 1179648, 0, 9, 1245184, 0, 9, 1310720, 0, 9, 1376256, 0, 9, 1441792, 0, 9, 1507328, 0, 9, 1572864, 0, 9, 65537, 131072, 9, 131073, 0, 9, 196609, 0, 9, 262145, 0, 9, 327681, 0, 9, 393217, 0, 9, 458753, 0, 9, 524289, 0, 9, 589825, 0, 9, 655361, 0, 9, 720897, 0, 9, 786433, 0, 9, 851969, 0, 9, 917505, 0, 9, 983041, 0, 9, 1048577, 0, 9, 1114113, 0, 9, 1179649, 0, 9, 1245185, 0, 9, 1310721, 0, 9, 1376257, 0, 9, 1441793, 0, 9, 1507329, 0, 9, 1572865, 0, 9, 65538, 131072, 9, 131074, 0, 9, 196610, 0, 9, 262146, 0, 9, 327682, 0, 9, 393218, 0, 9, 458754, 0, 9, 524290, 0, 9, 589826, 0, 9, 655362, 0, 9, 720898, 0, 9, 786434, 0, 9, 851970, 0, 9, 917506, 0, 9, 983042, 0, 9, 1048578, 0, 9, 1114114, 0, 9, 1179650, 0, 9, 1245186, 0, 9, 1310722, 0, 9, 1376258, 0, 9, 1441794, 0, 9, 1507330, 0, 9, 1572866, 0, 9, 65539, 65536, 11, 131075, 0, 9, 196611, 0, 9, 262147, 0, 9, 327683, 0, 9, 393219, 0, 9, 458755, 0, 9, 524291, 0, 9, 589827, 0, 9, 655363, 0, 9, 720899, 0, 9, 786435, 0, 9, 851971, 0, 9, 917507, 0, 9, 983043, 0, 9, 1048579, 0, 9, 1114115, 0, 9, 1179651, 0, 9, 1245187, 0, 9, 1310723, 0, 9, 1376259, 0, 9, 1441795, 0, 9, 1507331, 0, 9, 1572867, 0, 9, -2424832, 0, 9, -2359296, 0, 9, -2293760, 0, 9, -2228224, 0, 9, -2162688, 0, 9, -2097152, 0, 9, -2031616, 0, 9, -1966080, 0, 9, -1900544, 0, 9, -1835008, 0, 9, -1769472, 0, 9, -1703936, 0, 9, -1638400, 0, 9, -1572864, 0, 9, -1507328, 0, 9, -1441792, 0, 9, -1376256, 0, 9, -1310720, 0, 9, -1245184, 0, 9, -1179648, 0, 9, -1114112, 0, 9, -1048576, 0, 9, -983040, 0, 9, -917504, 0, 9, -851968, 0, 9, -786432, 0, 9, -720896, 0, 9, -655360, 0, 9, -589824, 0, 9, -524288, 0, 9, -458752, 65536, 805306379, -2424831, 0, 9, -2359295, 0, 9, -2293759, 0, 9, -2228223, 0, 9, -2162687, 0, 9, -2097151, 0, 9, -2031615, 0, 9, -1966079, 0, 9, -1900543, 0, 9, -1835007, 0, 9, -1769471, 0, 9, -1703935, 0, 9, -1638399, 0, 9, -1572863, 0, 9, -1507327, 0, 9, -1441791, 0, 9, -1376255, 0, 9, -1310719, 0, 9, -1245183, 0, 9, -1179647, 0, 9, -1114111, 0, 9, -1048575, 0, 9, -983039, 0, 9, -917503, 0, 9, -851967, 0, 9, -786431, 0, 9, -720895, 0, 9, -655359, 0, 9, -589823, 0, 9, -524287, 0, 9, -458751, 131072, 805306377, -2424830, 0, 9, -2359294, 0, 9, -2293758, 0, 9, -2228222, 0, 9, -2162686, 0, 9, -2097150, 0, 9, -2031614, 0, 9, -1966078, 0, 9, -1900542, 0, 9, -1835006, 0, 9, -1769470, 0, 9, -1703934, 0, 9, -1638398, 0, 9, -1572862, 0, 9, -1507326, 0, 9, -1441790, 0, 9, -1376254, 0, 9, -1310718, 0, 9, -1245182, 0, 9, -1179646, 0, 9, -1114110, 0, 9, -1048574, 0, 9, -983038, 0, 9, -917502, 0, 9, -851966, 0, 9, -786430, 0, 9, -720894, 0, 9, -655358, 0, 9, -589822, 0, 9, -524286, 0, 9, -458750, 131072, 805306377, -2424829, 0, 9, -2359293, 0, 9, -2293757, 0, 9, -2228221, 0, 9, -2162685, 0, 9, -2097149, 0, 9, -2031613, 0, 9, -1966077, 0, 9, -1900541, 0, 9, -1835005, 0, 9, -1769469, 0, 9, -1703933, 0, 9, -1638397, 0, 9, -1572861, 0, 9, -1507325, 0, 9, -1441789, 0, 9, -1376253, 0, 9, -1310717, 0, 9, -1245181, 0, 9, -1179645, 0, 9, -1114109, 0, 9, -1048573, 0, 9, -983037, 0, 9, -917501, 0, 9, -851965, 0, 9, -786429, 0, 9, -720893, 0, 9, -655357, 0, 9, -589821, 0, 9, -524285, 0, 9, -458749, 131072, 805306379, -393216, 65536, 805306378, -393213, 131072, 805306378, 1703936, 0, 9, 1769472, 0, 9, 1835008, 0, 9, 1900544, 0, 9, 1966080, 0, 9, 2031616, 0, 9, 2097152, 0, 9, 2162688, 0, 9, 2228224, 0, 9, 2293760, 0, 9, 2359296, 0, 9, 2424832, 0, 9, 2490368, 0, 9, 2555904, 0, 9, 2621440, 0, 9, 2686976, 0, 9, 2752512, 0, 9, 2818048, 0, 9, 2883584, 0, 9, 2949120, 0, 9, 3014656, 0, 9, 3080192, 0, 9, 3145728, 0, 9, 3211264, 0, 9, 3276800, 0, 9, 3342336, 0, 9, 3407872, 0, 9, 3473408, 0, 9, 3538944, 0, 9, 3604480, 0, 9, 3670016, 0, 9, 3735552, 0, 9, 3801088, 0, 9, 3866624, 0, 9, 3932160, 0, 9, 3997696, 0, 9, 4063232, 0, 9, 4128768, 0, 9, 4194304, 0, 9, 4259840, 0, 9, 4325376, 0, 9, 1703937, 0, 9, 1769473, 0, 9, 1835009, 0, 9, 1900545, 0, 9, 1966081, 0, 9, 2031617, 0, 9, 2097153, 0, 9, 2162689, 0, 9, 2228225, 0, 9, 2293761, 0, 9, 2359297, 0, 9, 2424833, 0, 9, 2490369, 0, 9, 2555905, 0, 9, 2621441, 0, 9, 2686977, 0, 9, 2752513, 0, 9, 2818049, 0, 9, 2883585, 0, 9, 2949121, 0, 9, 3014657, 0, 9, 3080193, 0, 9, 3145729, 0, 9, 3211265, 0, 9, 3276801, 0, 9, 3342337, 0, 9, 3407873, 0, 9, 3473409, 0, 9, 3538945, 0, 9, 3604481, 0, 9, 3670017, 0, 9, 3735553, 0, 9, 3801089, 0, 9, 3866625, 0, 9, 3932161, 0, 9, 3997697, 0, 9, 4063233, 0, 9, 4128769, 0, 9, 4194305, 0, 9, 4259841, 0, 9, 4325377, 0, 9, 1703938, 0, 9, 1769474, 0, 9, 1835010, 0, 9, 1900546, 0, 9, 1966082, 0, 9, 2031618, 0, 9, 2097154, 0, 9, 2162690, 0, 9, 2228226, 0, 9, 2293762, 0, 9, 2359298, 0, 9, 2424834, 0, 9, 2490370, 0, 9, 2555906, 0, 9, 2621442, 0, 9, 2686978, 0, 9, 2752514, 0, 9, 2818050, 0, 9, 2883586, 0, 9, 2949122, 0, 9, 3014658, 0, 9, 3080194, 0, 9, 3145730, 0, 9, 3211266, 0, 9, 3276802, 0, 9, 3342338, 0, 9, 3407874, 0, 9, 3473410, 0, 9, 3538946, 0, 9, 3604482, 0, 9, 3670018, 0, 9, 3735554, 0, 9, 3801090, 0, 9, 3866626, 0, 9, 3932162, 0, 9, 3997698, 0, 9, 4063234, 0, 9, 4128770, 0, 9, 4194306, 0, 9, 4259842, 0, 9, 4325378, 0, 9, 1703939, 0, 9, 1769475, 0, 9, 1835011, 0, 9, 1900547, 0, 9, 1966083, 0, 9, 2031619, 0, 9, 2097155, 0, 9, 2162691, 0, 9, 2228227, 0, 9, 2293763, 0, 9, 2359299, 0, 9, 2424835, 0, 9, 2490371, 0, 9, 2555907, 0, 9, 2621443, 0, 9, 2686979, 0, 9, 2752515, 0, 9, 2818051, 0, 9, 2883587, 0, 9, 2949123, 0, 9, 3014659, 0, 9, 3080195, 0, 9, 3145731, 0, 9, 3211267, 0, 9, 3276803, 0, 9, 3342339, 0, 9, 3407875, 0, 9, 3473411, 0, 9, 3538947, 0, 9, 3604483, 0, 9, 3670019, 0, 9, 3735555, 0, 9, 3801091, 0, 9, 3866627, 0, 9, 3932163, 0, 9, 3997699, 0, 9, 4063235, 0, 9, 4128771, 0, 9, 4194307, 0, 9, 4259843, 0, 9, 4325379, 0, 9, 4390912, 0, 9, 4456448, 0, 9, 4521984, 0, 9, 4587520, 0, 9, 4653056, 0, 9, 4718592, 0, 9, 4784128, 0, 9, 4849664, 0, 9, 4915200, 0, 9, 4980736, 0, 9, 5046272, 0, 9, 5111808, 0, 9, 5177344, 0, 9, 5242880, 0, 9, 5308416, 0, 9, 5373952, 0, 9, 5439488, 0, 9, 5505024, 0, 9, 5570560, 0, 9, 5636096, 0, 9, 4390913, 0, 9, 4456449, 0, 9, 4521985, 0, 9, 4587521, 0, 9, 4653057, 0, 9, 4718593, 0, 9, 4784129, 0, 9, 4849665, 0, 9, 4915201, 0, 9, 4980737, 0, 9, 5046273, 0, 9, 5111809, 0, 9, 5177345, 0, 9, 5242881, 0, 9, 5308417, 0, 9, 5373953, 0, 9, 5439489, 0, 9, 5505025, 0, 9, 5570561, 0, 9, 5636097, 0, 9, 4390914, 0, 9, 4456450, 0, 9, 4521986, 0, 9, 4587522, 0, 9, 4653058, 0, 9, 4718594, 0, 9, 4784130, 0, 9, 4849666, 0, 9, 4915202, 0, 9, 4980738, 0, 9, 5046274, 0, 9, 5111810, 0, 9, 5177346, 0, 9, 5242882, 0, 9, 5308418, 0, 9, 5373954, 0, 9, 5439490, 0, 9, 5505026, 0, 9, 5570562, 0, 9, 5636098, 0, 9, 4390915, 0, 9, 4456451, 0, 9, 4521987, 0, 9, 4587523, 0, 9, 4653059, 0, 9, 4718595, 0, 9, 4784131, 0, 9, 4849667, 0, 9, 4915203, 0, 9, 4980739, 0, 9, 5046275, 0, 9, 5111811, 0, 9, 5177347, 0, 9, 5242883, 0, 9, 5308419, 0, 9, 5373955, 0, 9, 5439491, 0, 9, 5505027, 0, 9, 5570563, 0, 9, 5636099, 0, 9, -10747904, 0, 9, -10682368, 0, 9, -10616832, 0, 9, -10551296, 0, 9, -10485760, 0, 9, -10420224, 0, 9, -10354688, 0, 9, -10289152, 0, 9, -10223616, 0, 9, -10158080, 0, 9, -10092544, 0, 9, -10027008, 0, 9, -9961472, 0, 9, -9895936, 0, 9, -9830400, 0, 9, -9764864, 0, 9, -9699328, 0, 9, -9633792, 0, 9, -9568256, 0, 9, -9502720, 0, 9, -9437184, 0, 9, -9371648, 0, 9, -9306112, 0, 9, -9240576, 0, 9, -9175040, 0, 9, -9109504, 0, 9, -9043968, 0, 9, -8978432, 0, 9, -8912896, 0, 9, -8847360, 0, 9, -8781824, 0, 9, -8716288, 0, 9, -8650752, 0, 9, -8585216, 0, 9, -8519680, 0, 9, -8454144, 0, 9, -8388608, 0, 9, -8323072, 0, 9, -8257536, 0, 9, -8192000, 0, 9, -8126464, 0, 9, -8060928, 0, 9, -7995392, 0, 9, -7929856, 0, 9, -7864320, 0, 9, -7798784, 0, 9, -7733248, 0, 9, -7667712, 0, 9, -7602176, 0, 9, -7536640, 0, 9, -7471104, 0, 9, -7405568, 0, 9, -7340032, 0, 9, -7274496, 0, 9, -7208960, 0, 9, -7143424, 0, 9, -7077888, 0, 9, -7012352, 0, 9, -6946816, 0, 9, -6881280, 0, 9, -6815744, 0, 9, -6750208, 0, 9, -6684672, 0, 9, -6619136, 0, 9, -6553600, 0, 9, -6488064, 0, 9, -6422528, 0, 9, -6356992, 0, 9, -6291456, 0, 9, -6225920, 0, 9, -6160384, 0, 9, -6094848, 0, 9, -6029312, 0, 9, -5963776, 0, 9, -5898240, 0, 9, -5832704, 0, 9, -5767168, 0, 9, -5701632, 0, 9, -5636096, 0, 9, -5570560, 0, 9, -5505024, 0, 9, -5439488, 0, 9, -5373952, 0, 9, -5308416, 0, 9, -5242880, 0, 9, -5177344, 0, 9, -5111808, 0, 9, -5046272, 0, 9, -4980736, 0, 9, -4915200, 0, 9, -4849664, 0, 9, -4784128, 0, 9, -4718592, 0, 9, -4653056, 0, 9, -4587520, 0, 9, -4521984, 0, 9, -4456448, 0, 9, -4390912, 0, 9, -4325376, 0, 9, -4259840, 0, 9, -4194304, 0, 9, -4128768, 0, 9, -4063232, 0, 9, -3997696, 0, 9, -3932160, 0, 9, -3866624, 0, 9, -3801088, 0, 9, -3735552, 0, 9, -3670016, 0, 9, -3604480, 0, 9, -3538944, 0, 9, -3473408, 0, 9, -3407872, 0, 9, -3342336, 0, 9, -3276800, 0, 9, -3211264, 0, 9, -3145728, 0, 9, -3080192, 0, 9, -3014656, 0, 9, -2949120, 0, 9, -2883584, 0, 9, -2818048, 0, 9, -2752512, 0, 9, -2686976, 0, 9, -2621440, 0, 9, -2555904, 0, 9, -10747903, 0, 9, -10682367, 0, 9, -10616831, 0, 9, -10551295, 0, 9, -10485759, 0, 9, -10420223, 0, 9, -10354687, 0, 9, -10289151, 0, 9, -10223615, 0, 9, -10158079, 0, 9, -10092543, 0, 9, -10027007, 0, 9, -9961471, 0, 9, -9895935, 0, 9, -9830399, 0, 9, -9764863, 0, 9, -9699327, 0, 9, -9633791, 0, 9, -9568255, 0, 9, -9502719, 0, 9, -9437183, 0, 9, -9371647, 0, 9, -9306111, 0, 9, -9240575, 0, 9, -9175039, 0, 9, -9109503, 0, 9, -9043967, 0, 9, -8978431, 0, 9, -8912895, 0, 9, -8847359, 0, 9, -8781823, 0, 9, -8716287, 0, 9, -8650751, 0, 9, -8585215, 0, 9, -8519679, 0, 9, -8454143, 0, 9, -8388607, 0, 9, -8323071, 0, 9, -8257535, 0, 9, -8191999, 0, 9, -8126463, 0, 9, -8060927, 0, 9, -7995391, 0, 9, -7929855, 0, 9, -7864319, 0, 9, -7798783, 0, 9, -7733247, 0, 9, -7667711, 0, 9, -7602175, 0, 9, -7536639, 0, 9, -7471103, 0, 9, -7405567, 0, 9, -7340031, 0, 9, -7274495, 0, 9, -7208959, 0, 9, -7143423, 0, 9, -7077887, 0, 9, -7012351, 0, 9, -6946815, 0, 9, -6881279, 0, 9, -6815743, 0, 9, -6750207, 0, 9, -6684671, 0, 9, -6619135, 0, 9, -6553599, 0, 9, -6488063, 0, 9, -6422527, 0, 9, -6356991, 0, 9, -6291455, 0, 9, -6225919, 0, 9, -6160383, 0, 9, -6094847, 0, 9, -6029311, 0, 9, -5963775, 0, 9, -5898239, 0, 9, -5832703, 0, 9, -5767167, 0, 9, -5701631, 0, 9, -5636095, 0, 9, -5570559, 0, 9, -5505023, 0, 9, -5439487, 0, 9, -5373951, 0, 9, -5308415, 0, 9, -5242879, 0, 9, -5177343, 0, 9, -5111807, 0, 9, -5046271, 0, 9, -4980735, 0, 9, -4915199, 0, 9, -4849663, 0, 9, -4784127, 0, 9, -4718591, 0, 9, -4653055, 0, 9, -4587519, 0, 9, -4521983, 0, 9, -4456447, 0, 9, -4390911, 0, 9, -4325375, 0, 9, -4259839, 0, 9, -4194303, 0, 9, -4128767, 0, 9, -4063231, 0, 9, -3997695, 0, 9, -3932159, 0, 9, -3866623, 0, 9, -3801087, 0, 9, -3735551, 0, 9, -3670015, 0, 9, -3604479, 0, 9, -3538943, 0, 9, -3473407, 0, 9, -3407871, 0, 9, -3342335, 0, 9, -3276799, 0, 9, -3211263, 0, 9, -3145727, 0, 9, -3080191, 0, 9, -3014655, 0, 9, -2949119, 0, 9, -2883583, 0, 9, -2818047, 0, 9, -2752511, 0, 9, -2686975, 0, 9, -2621439, 0, 9, -2555903, 0, 9, -10747902, 0, 9, -10682366, 0, 9, -10616830, 0, 9, -10551294, 0, 9, -10485758, 0, 9, -10420222, 0, 9, -10354686, 0, 9, -10289150, 0, 9, -10223614, 0, 9, -10158078, 0, 9, -10092542, 0, 9, -10027006, 0, 9, -9961470, 0, 9, -9895934, 0, 9, -9830398, 0, 9, -9764862, 0, 9, -9699326, 0, 9, -9633790, 0, 9, -9568254, 0, 9, -9502718, 0, 9, -9437182, 0, 9, -9371646, 0, 9, -9306110, 0, 9, -9240574, 0, 9, -9175038, 0, 9, -9109502, 0, 9, -9043966, 0, 9, -8978430, 0, 9, -8912894, 0, 9, -8847358, 0, 9, -8781822, 0, 9, -8716286, 0, 9, -8650750, 0, 9, -8585214, 0, 9, -8519678, 0, 9, -8454142, 0, 9, -8388606, 0, 9, -8323070, 0, 9, -8257534, 0, 9, -8191998, 0, 9, -8126462, 0, 9, -8060926, 0, 9, -7995390, 0, 9, -7929854, 0, 9, -7864318, 0, 9, -7798782, 0, 9, -7733246, 0, 9, -7667710, 0, 9, -7602174, 0, 9, -7536638, 0, 9, -7471102, 0, 9, -7405566, 0, 9, -7340030, 0, 9, -7274494, 0, 9, -7208958, 0, 9, -7143422, 0, 9, -7077886, 0, 9, -7012350, 0, 9, -6946814, 0, 9, -6881278, 0, 9, -6815742, 0, 9, -6750206, 0, 9, -6684670, 0, 9, -6619134, 0, 9, -6553598, 0, 9, -6488062, 0, 9, -6422526, 0, 9, -6356990, 0, 9, -6291454, 0, 9, -6225918, 0, 9, -6160382, 0, 9, -6094846, 0, 9, -6029310, 0, 9, -5963774, 0, 9, -5898238, 0, 9, -5832702, 0, 9, -5767166, 0, 9, -5701630, 0, 9, -5636094, 0, 9, -5570558, 0, 9, -5505022, 0, 9, -5439486, 0, 9, -5373950, 0, 9, -5308414, 0, 9, -5242878, 0, 9, -5177342, 0, 9, -5111806, 0, 9, -5046270, 0, 9, -4980734, 0, 9, -4915198, 0, 9, -4849662, 0, 9, -4784126, 0, 9, -4718590, 0, 9, -4653054, 0, 9, -4587518, 0, 9, -4521982, 0, 9, -4456446, 0, 9, -4390910, 0, 9, -4325374, 0, 9, -4259838, 0, 9, -4194302, 0, 9, -4128766, 0, 9, -4063230, 0, 9, -3997694, 0, 9, -3932158, 0, 9, -3866622, 0, 9, -3801086, 0, 9, -3735550, 0, 9, -3670014, 0, 9, -3604478, 0, 9, -3538942, 0, 9, -3473406, 0, 9, -3407870, 0, 9, -3342334, 0, 9, -3276798, 0, 9, -3211262, 0, 9, -3145726, 0, 9, -3080190, 0, 9, -3014654, 0, 9, -2949118, 0, 9, -2883582, 0, 9, -2818046, 0, 9, -2752510, 0, 9, -2686974, 0, 9, -2621438, 0, 9, -2555902, 0, 9, -10747901, 0, 9, -10682365, 0, 9, -10616829, 0, 9, -10551293, 0, 9, -10485757, 0, 9, -10420221, 0, 9, -10354685, 0, 9, -10289149, 0, 9, -10223613, 0, 9, -10158077, 0, 9, -10092541, 0, 9, -10027005, 0, 9, -9961469, 0, 9, -9895933, 0, 9, -9830397, 0, 9, -9764861, 0, 9, -9699325, 0, 9, -9633789, 0, 9, -9568253, 0, 9, -9502717, 0, 9, -9437181, 0, 9, -9371645, 0, 9, -9306109, 0, 9, -9240573, 0, 9, -9175037, 0, 9, -9109501, 0, 9, -9043965, 0, 9, -8978429, 0, 9, -8912893, 0, 9, -8847357, 0, 9, -8781821, 0, 9, -8716285, 0, 9, -8650749, 0, 9, -8585213, 0, 9, -8519677, 0, 9, -8454141, 0, 9, -8388605, 0, 9, -8323069, 0, 9, -8257533, 0, 9, -8191997, 0, 9, -8126461, 0, 9, -8060925, 0, 9, -7995389, 0, 9, -7929853, 0, 9, -7864317, 0, 9, -7798781, 0, 9, -7733245, 0, 9, -7667709, 0, 9, -7602173, 0, 9, -7536637, 0, 9, -7471101, 0, 9, -7405565, 0, 9, -7340029, 0, 9, -7274493, 0, 9, -7208957, 0, 9, -7143421, 0, 9, -7077885, 0, 9, -7012349, 0, 9, -6946813, 0, 9, -6881277, 0, 9, -6815741, 0, 9, -6750205, 0, 9, -6684669, 0, 9, -6619133, 0, 9, -6553597, 0, 9, -6488061, 0, 9, -6422525, 0, 9, -6356989, 0, 9, -6291453, 0, 9, -6225917, 0, 9, -6160381, 0, 9, -6094845, 0, 9, -6029309, 0, 9, -5963773, 0, 9, -5898237, 0, 9, -5832701, 0, 9, -5767165, 0, 9, -5701629, 0, 9, -5636093, 0, 9, -5570557, 0, 9, -5505021, 0, 9, -5439485, 0, 9, -5373949, 0, 9, -5308413, 0, 9, -5242877, 0, 9, -5177341, 0, 9, -5111805, 0, 9, -5046269, 0, 9, -4980733, 0, 9, -4915197, 0, 9, -4849661, 0, 9, -4784125, 0, 9, -4718589, 0, 9, -4653053, 0, 9, -4587517, 0, 9, -4521981, 0, 9, -4456445, 0, 9, -4390909, 0, 9, -4325373, 0, 9, -4259837, 0, 9, -4194301, 0, 9, -4128765, 0, 9, -4063229, 0, 9, -3997693, 0, 9, -3932157, 0, 9, -3866621, 0, 9, -3801085, 0, 9, -3735549, 0, 9, -3670013, 0, 9, -3604477, 0, 9, -3538941, 0, 9, -3473405, 0, 9, -3407869, 0, 9, -3342333, 0, 9, -3276797, 0, 9, -3211261, 0, 9, -3145725, 0, 9, -3080189, 0, 9, -3014653, 0, 9, -2949117, 0, 9, -2883581, 0, 9, -2818045, 0, 9, -2752509, 0, 9, -2686973, 0, 9, -2621437, 0, 9, -2555901, 0, 9)
layer_1/name = "Water"
layer_1/z_index = 1
layer_1/tile_data = PackedInt32Array()

[node name="BackgroundTileMap" type="TileMap" parent="."]
tile_set = ExtResource("2_fmcva")
format = 2
layer_0/name = "Background"
layer_0/z_index = -1
layer_0/tile_data = PackedInt32Array(-327680, 0, 131072, -262144, 0, 131072, -196608, 0, 131072, -131072, 0, 131072, -65536, 0, 131072, -327679, 0, 131072, -262143, 0, 131072, -196607, 0, 131072, -131071, 0, 131072, -65535, 0, 131072, -327678, 0, 131072, -262142, 0, 131072, -196606, 0, 131072, -131070, 0, 131072, -65534, 0, 131072, -327677, 0, 131072, -262141, 0, 131072, -196605, 0, 131072, -131069, 0, 131072, -65533, 0, 131072, -393216, 0, 131072, -393215, 0, 131072, -393214, 0, 131072, -393213, 0, 131072, -458752, 0, 131072, -458751, 0, 131072, -458750, 0, 131072, -458749, 0, 131072, 0, 0, 131072, 1, 0, 131072, 2, 0, 131072, 3, 0, 131072, 65539, 0, 131072)

[node name="BackgroundTileMap2" type="TileMap" parent="."]
tile_set = ExtResource("2_fmcva")
format = 2
layer_0/name = "Background"
layer_0/z_index = -1
layer_0/tile_data = PackedInt32Array(-327680, 0, 131072, -262144, 0, 131072, -196608, 0, 131072, -131072, 0, 131072, -65536, 0, 131072, -327679, 0, 131072, -262143, 0, 131072, -196607, 0, 131072, -131071, 0, 131072, -65535, 0, 131072, -327678, 0, 131072, -262142, 0, 131072, -196606, 0, 131072, -131070, 0, 131072, -65534, 0, 131072, -327677, 0, 131072, -262141, 0, 131072, -196605, 0, 131072, -131069, 0, 131072, -65533, 0, 131072, -393216, 0, 131072, -393215, 0, 131072, -393214, 0, 131072, -393213, 0, 131072, -458752, 0, 131072, -458751, 0, 131072, -458750, 0, 131072, -458749, 0, 131072, 0, 0, 131072, 1, 589824, 9, 2, 720896, 9, 3, 0, 131072, 65539, 0, 131072)

[node name="LevelStart" type="Marker2D" parent="."]

[node name="LevelEnd" type="Marker2D" parent="."]
position = Vector2(256, 0)
